{
  "tasks": [
    {
      "id": 0,
      "name": "Answer ACAD viva for project 1 and project 2",
      "status": "In-Progress",
      "description": "Call ACAD and inform date and time",
      "date": "2017-07-11T17:57:28.556094Z"
    },
    {
      "id": 1,
      "name": "Link Aadhar to PAN",
      "status": "Open",
      "description": "Tell CA to link Aadhaar to PAN Card",
      "date": "2017-07-07T17:57:28.556094Z"
    },
    {
      "id": 2,
      "name": "Book Movie Ticket",
      "status": "Closed",
      "description": "Bahubali",
      "date": "2017-06-01T17:57:28.556094Z"
    },
    {
      "name": "Call Anagh Desai",
      "status": "Closed",
      "description": "Check movie Timings",
      "date": "2018-07-06T18:30:00.000Z",
      "id": 3
    }
  ]
}